Home - Using API Calls
…
# Join multiple tables
drugs <- drugs |> 
  full_join(drugs2)

# Write the csv file
write.csv(drugs, "drugs_tbl.csv")

Here’s what the result looks like:

Code

drugs |> 
  print(n = 12)

# A tibble: 1,998 × 5
   reportId patientAge patientSex drugName       reaction                       
      <dbl>      <dbl>      <dbl> <chr>          <chr>                          
 1 10003301         NA          2 IBUPROFEN      "Dyspepsia, Renal impairment"  
 2 10003311         76          2 LETAIRIS       "Oedema peripheral, Fluid rete…
 3 10003312         43          2 ILARIS         "Pneumonia, Drug ineffective"  
 4 10003315         NA          1 RANOLAZINE     "Death"                        
 5 10003317         46          1 BENLYSTA       ""                             
 6 10003318         59          2 BELIMUMAB      "Tuberculosis of central nervo…
 7 10003319         46          2 BENLYSTA       ""                             
 8 10003321         71          1 ACETAMINOPHEN. "Adenoviral haemorrhagic cysti…
 9 10003325         68          2 LETAIRIS       "Swelling"                     
10 10003326         29          2 CEFTRIAXONE    ""                             
11 10003327         53          1 PREDNISONE     ""                             
12 10003328         55          2 PACLITAXEL     ""                             
# ℹ 1,986 more rows
…
